,LEAD ID,LEAD TYPE,FIRST NAME,LAST NAME,ADDRESS,CITY,ST,Je,FULL NAME,FIRST NAME,LAST NAME,ADDRESS,CITY ,STATE,ZIP,MAILING ADDRESS,MAILING CITY ,MAILING STATE,MAILING ZIP,HOME TYPE,HOUSE STYLE,BEDROOMS,BATHROOMS,SQUARE FEET,STORIES,YEAR BUILT,LOT SQUARE FEET,AVM,LTV,Market Value,Assesed  Total,Assessed Year,Annual Tax Payment ,Tax Year,Subdivision,Legal Description,Exterior,Interior Walls,Basement,Roof,Roof Shape,Water,Sewer,Location Influence,Heating,Heating Fuel,Air Conditioning,Fireplace,Garage,Patio,Pool,Porch,Date,Event,Sale Price,Loan,Lender,Buyer,Seller
0,1,NOD (PUBLIC NOTICE),,,4812 Trappers Ridge,Antioch,TN,37013,Amrollah ,Sharifi,4812 TRAPPERS RDG ,"ANTIOCH,",TN,37013,,,,,,,,,,,,,,,,,,,,,,,,,,,,,,,,,,,,,,,,,,,,,
1,2,NOD (PUBLIC NOTICE),,,6205 Bent Wood Dr,Antioch,TN,37013,Travis Logan,,6205 BENT WOOD DR ,,"ANTIOCH, TN 37013",,,,,,,,,,,,,,,,,,,,,,,,,,,,,,,,,,,,,,,,,,,,,,
2,3,NOD (PUBLIC NOTICE),,,110 Bellevue Rd Apt 14,Bellevue,TN,37221,,,,,,,,,,,,,,,,,,,,,,,,,,,,,,,,,,,,,,,,,,,,,,,,,,,
